Tools to Work with HLA Typings and Single-Antigen Bead Assays • hlapro
…
A common use case would be to lookup which eplets occur on a set of (positive) Luminex beads:

df_eplets <- load_eplet_registry()
#> Loaded Eplet Registry table (Updated with IPD-IMGT/HLA 3.53.),
#> released 2023-08-25, downloaded from https://www.epregistry.com.br
luminex_df <- dplyr::tribble(
  ~sampleID, ~allele, ~positive,
  "001", "A*01:01", TRUE,
  "001", "A*02:01", FALSE,
  "002", "A*01:01", FALSE
)
get_positive_eplets(luminex_df, sampleID, allele, positive, df_eplets)
#> # A tibble: 24 × 2
#>    sampleID eplets_pos
#>    <chr>    <chr>     
#>  1 001      44KM      
#>  2 001      62QE      
#>  3 001      65RNA     
#>  4 001      66N       
#>  5 001      66NH      
#>  6 001      66NM      
#>  7 001      76ANT     
#>  8 001      77N       
#>  9 001      77NGT     
#> 10 001      90D       
#> # ℹ 14 more rows
…
