…
A common use case would be to lookup which eplets occur on a set of
(positive) Luminex beads:

``` r
df_eplets <- load_eplet_registry()
#> Loaded Eplet Registry table (Updated with IPD-IMGT/HLA 3.54.),
#> released 2024-01-24, downloaded from https://www.epregistry.com.br
luminex_df <- dplyr::tribble(
  ~sampleID, ~allele, ~positive,
  "001", "A*01:01", TRUE,
  "001", "A*02:01", FALSE,
  "002", "A*01:01", FALSE
)
get_positive_eplets(luminex_df, sampleID, allele, positive, df_eplets)
#> # A tibble: 28 × 2
#>    sampleID eplets_pos
#>    <chr>    <chr>     
#>  1 001      44KM      
#>  2 001      62QE      
#>  3 001      62QE+56G  
#>  4 001      65RNA     
#>  5 001      66N       
#>  6 001      66NH      
#>  7 001      66NM      
#>  8 001      76ANT     
#>  9 001      77N[ABC]  
#> 10 001      77NGT     
#> # ℹ 18 more rows
```
…
